{
  "login": {
    "accessToken": "Jt2XJHq6p9pog8ZavJzBKt3c"
  },
  "todos": [
    {
      "id": 1575380175504,
      "text": "1575380175504",
      "completed": false
    },
    {
      "id": 1575380176529,
      "text": "1575380176529",
      "completed": true
    },
    {
      "id": 1575380180962,
      "text": "1575380180962",
      "completed": true
    }
  ],
  "products": [
    {
      "id": 1,
      "name": "Nutellaa",
      "price": 1
    },
    {
      "id": 2,
      "name": "Milk",
      "price": 503
    },
    {
      "name": "Charms",
      "price": 444,
      "id": 3
    },
    {
      "name": "Chocolate",
      "price": 100,
      "id": 4
    },
    {
      "name": "Another",
      "price": 111,
      "id": 6
    }
  ]
}